…
unsolved=homicide%>%
  filter(disposition!="Closed by arrest")%>%
  group_by(city_state)%>%
  summarise(unsolved=n())

request=full_join(total_home,unsolved)
```

    ## Joining, by = "city_state"

``` r
request
```

    ## # A tibble: 51 × 3
    ##    city_state     total unsolved
    ##    <chr>          <int>    <int>
    ##  1 Albuquerque,NM   378      146
    ##  2 Atlanta,GA       973      373
    ##  3 Baltimore,MD    2827     1825
    ##  4 Baton Rouge,LA   424      196
    ##  5 Birmingham,AL    800      347
    ##  6 Boston,MA        614      310
    ##  7 Buffalo,NY       521      319
    ##  8 Charlotte,NC     687      206
    ##  9 Chicago,IL      5535     4073
    ## 10 Cincinnati,OH    694      309
    ## # … with 41 more rows
…
``` r
request_test=request%>%
  na.omit()%>%
  mutate(prop_test=map2(.x=unsolved,.y=total,~prop.test(x=.x,n=.y)))%>%
  mutate(prop_test=map(prop_test,broom::tidy))%>%
  unnest(prop_test)%>%
  select(city_state,estimate,conf.low,conf.high)
request_test
```

    ## # A tibble: 50 × 4
    ##    city_state     estimate conf.low conf.high
    ##    <chr>             <dbl>    <dbl>     <dbl>
    ##  1 Albuquerque,NM    0.386    0.337     0.438
    ##  2 Atlanta,GA        0.383    0.353     0.415
    ##  3 Baltimore,MD      0.646    0.628     0.663
    ##  4 Baton Rouge,LA    0.462    0.414     0.511
    ##  5 Birmingham,AL     0.434    0.399     0.469
    ##  6 Boston,MA         0.505    0.465     0.545
    ##  7 Buffalo,NY        0.612    0.569     0.654
    ##  8 Charlotte,NC      0.300    0.266     0.336
    ##  9 Chicago,IL        0.736    0.724     0.747
    ## 10 Cincinnati,OH     0.445    0.408     0.483
    ## # … with 40 more rows
…
